Chapter 9 Chuẩn hóa theo chiều ngang | A Minimal Bookdown Book
…
: khi nhiều giá trị trong + nhiều , quy định thứ tự ghép cột (“fastest” hoặc “slowest”).

: mở rộng tất cả giá trị có thể trong , kể cả giá trị không xuất hiện.

: xử lý khi tên cột trùng (mặc định báo lỗi, có thể chọn “minimal”, “unique”…)

: điền giá trị thay thế cho (ví dụ: 0).

: hàm tổng hợp khi có nhiều giá trị rơi vào cùng một ô (ví dụ: , ).

: hàm tổng hợp cho các cột không dùng trong , , .

cms_patient_experience

## # A tibble: 500 × 5
##   org_pac_id org_nm                     measure_cd  measure_title            prf_rate
##   <chr>      <chr>                      <chr>       <chr>                       <dbl>
## 1 0446157747 USC CARE MEDICAL GROUP INC CAHPS_GRP_1 CAHPS for MIPS SSM: Get…       63
## 2 0446157747 USC CARE MEDICAL GROUP INC CAHPS_GRP_2 CAHPS for MIPS SSM: How…       87
## 3 0446157747 USC CARE MEDICAL GROUP INC CAHPS_GRP_3 CAHPS for MIPS SSM: Pat…       86
## 4 0446157747 USC CARE MEDICAL GROUP INC CAHPS_GRP_5 CAHPS for MIPS SSM: Hea…       57
## 5 0446157747 USC CARE MEDICAL GROUP INC CAHPS_GRP_8 CAHPS for MIPS SSM: Cou…       85
## # ℹ 495 more rows

Đơn vị cốt lõi được nghiên cứu là tổ chức (), nhưng mỗi tổ chức lại trải rộng thành sáu hàng, với mỗi hàng tương ứng với một phép đo được thực hiện trong khảo sát tổ chức.

Ta có thể xem toàn bộ tập hợp giá trị của và bằng cách sử dụng hàm .

cms_patient_experience |> 
  distinct(measure_cd, measure_title)

## # A tibble: 6 × 2
##   measure_cd  measure_title                                                         
##   <chr>       <chr>                                                                 
## 1 CAHPS_GRP_1 CAHPS for MIPS SSM: Getting Timely Care, Appointments, and Information
## 2 CAHPS_GRP_2 CAHPS for MIPS SSM: How Well Providers Communicate                    
## 3 CAHPS_GRP_3 CAHPS for MIPS SSM: Patient's Rating of Provider                      
## 4 CAHPS_GRP_5 CAHPS for MIPS SSM: Health Promotion and Education                    
## 5 CAHPS_GRP_8 CAHPS for MIPS SSM: Courteous and Helpful Office Staff                
## # ℹ 1 more row

Cả hai cột này đều không phải là lựa chọn tốt để làm tên biến: thì không gợi ý rõ ý nghĩa của biến, còn lại là một câu dài có chứa khoảng trắng. Vì vậy, ta sẽ tạm dùng làm nguồn cho tên cột mới, nhưng trong một phân tích thực tế, bạn có thể muốn tự tạo ra những tên biến vừa ngắn gọn vừa có ý nghĩa hơn.

 có giao diện ngược lại với : thay vì chọn tên cột mới, ta cần chỉ định các cột hiện có để xác định giá trị () và tên cột ().

cms_patient_experience |> 
  pivot_wider(
    names_from = measure_cd,
    values_from = prf_rate
  )

## # A tibble: 500 × 9
##   org_pac_id org_nm     measure_title CAHPS_GRP_1 CAHPS_GRP_2 CAHPS_GRP_3 CAHPS_GRP_5
##   <chr>      <chr>      <chr>               <dbl>       <dbl>       <dbl>       <dbl>
## 1 0446157747 USC CARE … CAHPS for MI…          63          NA          NA          NA
## 2 0446157747 USC CARE … CAHPS for MI…          NA          87          NA          NA
## 3 0446157747 USC CARE … CAHPS for MI…          NA          NA          86          NA
## 4 0446157747 USC CARE … CAHPS for MI…          NA          NA          NA          57
## 5 0446157747 USC CARE … CAHPS for MI…          NA          NA          NA          NA
## # ℹ 495 more rows
## # ℹ 2 more variables: CAHPS_GRP_8 <dbl>, CAHPS_GRP_12 <dbl>

Kết quả đầu ra vẫn chưa đúng: có vẻ mỗi vẫn xuất hiện nhiều hàng. Lý do là ta còn phải cho biết cột (hoặc các cột) nào có giá trị nhận diện duy nhất từng hàng; trong trường hợp này chính là các biến bắt đầu bằng .

cms_patient_experience |> 
  pivot_wider(
    id_cols = starts_with("org"),
    names_from = measure_cd,
    values_from = prf_rate
  )

## # A tibble: 95 × 8
##   org_pac_id org_nm       CAHPS_GRP_1 CAHPS_GRP_2 CAHPS_GRP_3 CAHPS_GRP_5 CAHPS_GRP_8
##   <chr>      <chr>              <dbl>       <dbl>       <dbl>       <dbl>       <dbl>
## 1 0446157747 USC CARE ME…          63          87          86          57          85
## 2 0446162697 ASSOCIATION…          59          85          83          63          88
## 3 0547164295 BEAVER MEDI…          49          NA          75          44          73
## 4 0749333730 CAPE PHYSIC…          67          84          85          65          82
## 5 0840104360 ALLIANCE PH…          66          87          87          64          87
## # ℹ 90 more rows
## # ℹ 1 more variable: CAHPS_GRP_12 <dbl>
…
