Chapter 4 Nguyên tắc chuẩn hóa dữ liệu (Tidying data) | A Minimal Bookdown Book
…
            A Minimal Bookdown Book

Chapter 4 Nguyên tắc chuẩn hóa dữ liệu (Tidying data)

table1

## # A tibble: 6 × 4
##   country      year  cases population
##   <chr>       <dbl>  <dbl>      <dbl>
## 1 Afghanistan  1999    745   19987071
## 2 Afghanistan  2000   2666   20595360
## 3 Brazil       1999  37737  172006362
## 4 Brazil       2000  80488  174504898
## 5 China        1999 212258 1272915272
## # ℹ 1 more row

table2

## # A tibble: 12 × 4
##   country      year type          count
##   <chr>       <dbl> <chr>         <dbl>
## 1 Afghanistan  1999 cases           745
## 2 Afghanistan  1999 population 19987071
## 3 Afghanistan  2000 cases          2666
## 4 Afghanistan  2000 population 20595360
## 5 Brazil       1999 cases         37737
## # ℹ 7 more rows

table3

## # A tibble: 6 × 3
##   country      year rate             
##   <chr>       <dbl> <chr>            
## 1 Afghanistan  1999 745/19987071     
## 2 Afghanistan  2000 2666/20595360    
## 3 Brazil       1999 37737/172006362  
## 4 Brazil       2000 80488/174504898  
## 5 China        1999 212258/1272915272
## # ℹ 1 more row
…
