Chapter 4 Tidying data) | Tidying data
…
            Tidying data

Chapter 4 Tidying data)

Hầu hết dữ liệu trong thông kê được là dữ liệu dạng bảng, được cấu tạo bởi hàng và cột.

4.1 Nguyên tắc chuẩn hóa dữ liệu (Tidying data)

table1

## # A tibble: 6 × 4
##   country      year  cases population
##   <chr>       <dbl>  <dbl>      <dbl>
## 1 Afghanistan  1999    745   19987071
## 2 Afghanistan  2000   2666   20595360
## 3 Brazil       1999  37737  172006362
## 4 Brazil       2000  80488  174504898
## 5 China        1999 212258 1272915272
## # ℹ 1 more row

table2

## # A tibble: 12 × 4
##   country      year type          count
##   <chr>       <dbl> <chr>         <dbl>
## 1 Afghanistan  1999 cases           745
## 2 Afghanistan  1999 population 19987071
## 3 Afghanistan  2000 cases          2666
## 4 Afghanistan  2000 population 20595360
## 5 Brazil       1999 cases         37737
## # ℹ 7 more rows

table3

## # A tibble: 6 × 3
##   country      year rate             
##   <chr>       <dbl> <chr>            
## 1 Afghanistan  1999 745/19987071     
## 2 Afghanistan  2000 2666/20595360    
## 3 Brazil       1999 37737/172006362  
## 4 Brazil       2000 80488/174504898  
## 5 China        1999 212258/1272915272
## # ℹ 1 more row
Các bảng dữ liệu trên có điểm gì khác nhau? Bảng nào phù hợp để phân tích?

Đây đều là những cách biểu diễn cùng một dữ liệu cơ bản, nhưng chúng không dễ sử dụng như nhau. Trong đó, sẽ dễ làm việc hơn nhiều trong vì nó đã ở dạng tidy.

Có 3 nguyên tắc để chuẩn hóa dữ liệu (dạng bảng):

4.2 Tại sao phải chuẩn hóa dữ liệu?

 và tất cả các gói khác trong được thiết kế để hoạt động với dữ liệu gọn gàng. Dưới đây là một vài ví dụ nhỏ cho thấy cách bạn có thể làm việc với 

# Compute rate per 10,000
table1 |>
  mutate(rate = cases / population * 10000)

## # A tibble: 6 × 5
##   country      year  cases population     rate
##   <chr>       <dbl>  <dbl>      <dbl>    <dbl>
## 1 Afghanistan  1999    745   19987071 0.372741
## 2 Afghanistan  2000   2666   20595360 1.29447 
## 3 Brazil       1999  37737  172006362 2.19393 
## 4 Brazil       2000  80488  174504898 4.61236 
## 5 China        1999 212258 1272915272 1.66750 
## # ℹ 1 more row
…
Đôi khi dễ, nhưng cũng có khi cần hỏi người tạo dữ liệu.

Dùng các thao tác pivot để đưa dữ liệu về dạng tidy:

Lengthening (chuẩn hóa theo chiều dọc): chuyển dữ liệu từ dạng wide format sang long format

Widening (chuẩn hóa theo chiều ngang): chuyển dữ liệu từ dạng long format sang wide format

4.5 Chuẩn hóa theo chiều dọc

4.5.1 Dữ liệu trong tên cột

billboard

## # A tibble: 317 × 79
##   artist     track date.entered   wk1   wk2   wk3   wk4   wk5   wk6   wk7   wk8   wk9
##   <chr>      <chr> <date>       <dbl> <dbl> <dbl> <dbl> <dbl> <dbl> <dbl> <dbl> <dbl>
## 1 2 Pac      Baby… 2000-02-26      87    82    72    77    87    94    99    NA    NA
## 2 2Ge+her    The … 2000-09-02      91    87    92    NA    NA    NA    NA    NA    NA
## 3 3 Doors D… Kryp… 2000-04-08      81    70    68    67    66    57    54    53    51
## 4 3 Doors D… Loser 2000-10-21      76    76    72    69    67    65    55    59    62
## 5 504 Boyz   Wobb… 2000-04-15      57    34    25    17    17    31    36    49    53
## # ℹ 312 more rows
## # ℹ 67 more variables: wk10 <dbl>, wk11 <dbl>, wk12 <dbl>, wk13 <dbl>, wk14 <dbl>,
## #   wk15 <dbl>, wk16 <dbl>, wk17 <dbl>, wk18 <dbl>, wk19 <dbl>, wk20 <dbl>,
## #   wk21 <dbl>, wk22 <dbl>, wk23 <dbl>, wk24 <dbl>, wk25 <dbl>, wk26 <dbl>,
## #   wk27 <dbl>, wk28 <dbl>, wk29 <dbl>, wk30 <dbl>, wk31 <dbl>, wk32 <dbl>,
## #   wk33 <dbl>, wk34 <dbl>, wk35 <dbl>, wk36 <dbl>, wk37 <dbl>, wk38 <dbl>,
## #   wk39 <dbl>, wk40 <dbl>, wk41 <dbl>, wk42 <dbl>, wk43 <dbl>, wk44 <dbl>, …
…
: Xử lý tên cột trùng lặp

: Tên cột mới chứa giá trị từ các ô dữ liệu. (Bị bỏ qua nếu dùng ).

: Nếu , bỏ dòng có (chỉ giữ quan sát thực).

billboard |> 
  pivot_longer(
    cols = starts_with("wk"), 
    names_to = "week", 
    values_to = "rank"
  )

## # A tibble: 24,092 × 5
##   artist track                   date.entered week   rank
##   <chr>  <chr>                   <date>       <chr> <dbl>
## 1 2 Pac  Baby Don't Cry (Keep... 2000-02-26   wk1      87
## 2 2 Pac  Baby Don't Cry (Keep... 2000-02-26   wk2      82
## 3 2 Pac  Baby Don't Cry (Keep... 2000-02-26   wk3      72
## 4 2 Pac  Baby Don't Cry (Keep... 2000-02-26   wk4      77
## 5 2 Pac  Baby Don't Cry (Keep... 2000-02-26   wk5      87
## # ℹ 24,087 more rows
…
 đặt tên cho biến được lưu trong các giá trị ô, ở đây ta đặt tên biến đó là .

Lưu ý rằng trong code, và được để trong dấu nháy kép vì đó là các biến mới ta tạo ra, chúng chưa tồn tại trong dữ liệu khi ta gọi .

Bây giờ ta hãy chú ý đến data frame sau khi được làm dài. Điều gì xảy ra nếu một bài hát nằm trong top 100 ít hơn 76 tuần? Ví dụ, bài của 2 Pac “Baby Don’t Cry”. Kết quả ở trên cho thấy nó chỉ nằm trong top 100 trong 7 tuần, và tất cả các tuần còn lại được điền bằng giá trị thiếu (). Những giá trị này thật ra không đại diện cho quan sát bị thiếu, mà là do cấu trúc của bắt buộc phải có. Vì vậy, ta có thể yêu cầu loại bỏ chúng bằng cách đặt .

billboard |> 
  pivot_longer(
    cols = starts_with("wk"), 
    names_to = "week", 
    values_to = "rank",
    values_drop_na = TRUE
  )

## # A tibble: 5,307 × 5
##   artist track                   date.entered week   rank
##   <chr>  <chr>                   <date>       <chr> <dbl>
## 1 2 Pac  Baby Don't Cry (Keep... 2000-02-26   wk1      87
## 2 2 Pac  Baby Don't Cry (Keep... 2000-02-26   wk2      82
## 3 2 Pac  Baby Don't Cry (Keep... 2000-02-26   wk3      72
## 4 2 Pac  Baby Don't Cry (Keep... 2000-02-26   wk4      77
## 5 2 Pac  Baby Don't Cry (Keep... 2000-02-26   wk5      87
## # ℹ 5,302 more rows
…
Dữ liệu hiện tại đã ở dạng tidy, nhưng ta có thể làm cho việc tính toán sau này dễ dàng hơn bằng cách chuyển đổi giá trị của từ chuỗi ký tự thành số, sử dụng và . Hàm rất tiện lợi vì nó sẽ trích xuất số đầu tiên trong một chuỗi, và bỏ qua toàn bộ phần ký tự khác

billboard_longer <- billboard |> 
  pivot_longer(
    cols = starts_with("wk"), 
    names_to = "week", 
    values_to = "rank",
    values_drop_na = TRUE
  ) |> 
  mutate(
    week = parse_number(week)
  )
billboard_longer

## # A tibble: 5,307 × 5
##   artist track                   date.entered  week  rank
##   <chr>  <chr>                   <date>       <dbl> <dbl>
## 1 2 Pac  Baby Don't Cry (Keep... 2000-02-26       1    87
## 2 2 Pac  Baby Don't Cry (Keep... 2000-02-26       2    82
## 3 2 Pac  Baby Don't Cry (Keep... 2000-02-26       3    72
## 4 2 Pac  Baby Don't Cry (Keep... 2000-02-26       4    77
## 5 2 Pac  Baby Don't Cry (Keep... 2000-02-26       5    87
## # ℹ 5,302 more rows
…
Ta có thể thấy rằng rất ít bài hát duy trì trong top 100 quá 20 tuần. Với dữ liệu đã được chuẩn hóa ta có thể tạo được Thống kê theo nghệ sĩ (số bài hát, số tuần trụ BXH, rank trung bình)

billboard_longer %>%
  group_by(artist) %>%
  summarise(
    n_songs = n_distinct(track),
    total_weeks = n_distinct(paste(track, week)),
    avg_rank = mean(rank, na.rm = TRUE)
  ) %>%
  arrange(avg_rank)

## # A tibble: 228 × 4
##   artist                           n_songs total_weeks avg_rank
##   <chr>                              <int>       <int>    <dbl>
## 1 "Santana"                              1          26  10.5   
## 2 "Elliott, Missy \"Misdemeanor\""       1          21  14.3333
## 3 "matchbox twenty"                      1          39  18.6410
## 4 "N'Sync"                               3          74  18.6486
## 5 "Janet"                                1          24  19.4167
## # ℹ 223 more rows
…
Chúng ta muốn bộ dữ liệu mới có ba biến: (đã tồn tại), (tên các cột) và (giá trị trong các ô). Để làm được điều này, chúng ta cần sử dụng trên :

df |> 
  pivot_longer(
    cols = bp1:bp2,
    names_to = "measurement",
    values_to = "value"
  )

## # A tibble: 6 × 3
##   id    measurement value
##   <chr> <chr>       <dbl>
## 1 A     bp1           100
## 2 A     bp2           120
## 3 B     bp1           140
## 4 B     bp2           115
## 5 C     bp1           120
## # ℹ 1 more row
…
4.5.3 Nhiều biến được lưu trong một cột

who2

## # A tibble: 7,240 × 58
##   country     year sp_m_014 sp_m_1524 sp_m_2534 sp_m_3544 sp_m_4554 sp_m_5564 sp_m_65
##   <chr>      <dbl>    <dbl>     <dbl>     <dbl>     <dbl>     <dbl>     <dbl>   <dbl>
## 1 Afghanist…  1980       NA        NA        NA        NA        NA        NA      NA
## 2 Afghanist…  1981       NA        NA        NA        NA        NA        NA      NA
## 3 Afghanist…  1982       NA        NA        NA        NA        NA        NA      NA
## 4 Afghanist…  1983       NA        NA        NA        NA        NA        NA      NA
## 5 Afghanist…  1984       NA        NA        NA        NA        NA        NA      NA
## # ℹ 7,235 more rows
## # ℹ 49 more variables: sp_f_014 <dbl>, sp_f_1524 <dbl>, sp_f_2534 <dbl>,
## #   sp_f_3544 <dbl>, sp_f_4554 <dbl>, sp_f_5564 <dbl>, sp_f_65 <dbl>,
## #   sn_m_014 <dbl>, sn_m_1524 <dbl>, sn_m_2534 <dbl>, sn_m_3544 <dbl>,
## #   sn_m_4554 <dbl>, sn_m_5564 <dbl>, sn_m_65 <dbl>, sn_f_014 <dbl>,
## #   sn_f_1524 <dbl>, sn_f_2534 <dbl>, sn_f_3544 <dbl>, sn_f_4554 <dbl>,
## #   sn_f_5564 <dbl>, sn_f_65 <dbl>, ep_m_014 <dbl>, ep_m_1524 <dbl>, …
…
số lượng bệnh nhân trong nhóm.

Để sắp xếp 6 thông tin này vào 6 cột riêng biệt, ta sử dụng với:

một vector cột cho , hướng dẫn tách tên biến gốc thành nhiều phần qua ,và một tên cột cho .

who2 |> 
  pivot_longer(
    cols = !(country:year),
    names_to = c("diagnosis", "gender", "age"), 
    names_sep = "_",
    values_to = "count"
  )

## # A tibble: 405,440 × 6
##   country      year diagnosis gender age   count
##   <chr>       <dbl> <chr>     <chr>  <chr> <dbl>
## 1 Afghanistan  1980 sp        m      014      NA
## 2 Afghanistan  1980 sp        m      1524     NA
## 3 Afghanistan  1980 sp        m      2534     NA
## 4 Afghanistan  1980 sp        m      3544     NA
## 5 Afghanistan  1980 sp        m      4554     NA
## # ℹ 405,435 more rows

Một các khác có thể được sử dụng là sử dụng tham số kết hợp việc sử dụng kĩ thuật phân tích chuỗi để trích xuất thông tin từ biến.

who2 |> 
  pivot_longer(
    cols = !(country:year), 
    names_to = c("diagnosis", "gender", "age"), 
    names_pattern = "([a-z]+)_([mf])_(.*)", 
    values_to = "count"
  )

## # A tibble: 405,440 × 6
##   country      year diagnosis gender age   count
##   <chr>       <dbl> <chr>     <chr>  <chr> <dbl>
## 1 Afghanistan  1980 sp        m      014      NA
## 2 Afghanistan  1980 sp        m      1524     NA
## 3 Afghanistan  1980 sp        m      2534     NA
## 4 Afghanistan  1980 sp        m      3544     NA
## 5 Afghanistan  1980 sp        m      4554     NA
## # ℹ 405,435 more rows
…
Bộ dữ liệu này chứa thông tin về năm gia đình, với tên và ngày sinh của tối đa hai đứa trẻ. Thách thức mới trong bộ dữ liệu này là tên cột lại chứa tên của hai biến (, ) và giá trị của một biến khác (, với giá trị 1 hoặc 2).

Để giải quyết vấn đề này, ta cần truyền một vector vào đối số , nhưng lần này ta dùng sentinel đặc biệt ; đây không phải là tên của một biến mà là một giá trị đặc biệt cho để thực hiện một hành động khác. Cụ thể, nó sẽ ghi đè đối số thông thường và sử dụng thành phần đầu tiên của tên cột sau khi pivot làm tên biến trong bảng kết quả.

household |> 
  pivot_longer(
    cols = !family, 
    names_to = c(".value", "child"), 
    names_sep = "_", 
    values_drop_na = TRUE
  )

## # A tibble: 9 × 4
##   family child  dob        name 
##    <int> <chr>  <date>     <chr>
## 1      1 child1 1998-11-26 Susan
## 2      1 child2 2000-01-29 Jose 
## 3      2 child1 1996-06-22 Mark 
## 4      3 child1 2002-07-11 Sam  
## 5      3 child2 2004-04-05 Seth 
## # ℹ 4 more rows
…
: khi nhiều giá trị trong + nhiều , quy định thứ tự ghép cột (“fastest” hoặc “slowest”).

: mở rộng tất cả giá trị có thể trong , kể cả giá trị không xuất hiện.

: xử lý khi tên cột trùng (mặc định báo lỗi, có thể chọn “minimal”, “unique”…)

: điền giá trị thay thế cho (ví dụ: 0).

: hàm tổng hợp khi có nhiều giá trị rơi vào cùng một ô (ví dụ: , ).

: hàm tổng hợp cho các cột không dùng trong , , .

cms_patient_experience

## # A tibble: 500 × 5
##   org_pac_id org_nm                     measure_cd  measure_title            prf_rate
##   <chr>      <chr>                      <chr>       <chr>                       <dbl>
## 1 0446157747 USC CARE MEDICAL GROUP INC CAHPS_GRP_1 CAHPS for MIPS SSM: Get…       63
## 2 0446157747 USC CARE MEDICAL GROUP INC CAHPS_GRP_2 CAHPS for MIPS SSM: How…       87
## 3 0446157747 USC CARE MEDICAL GROUP INC CAHPS_GRP_3 CAHPS for MIPS SSM: Pat…       86
## 4 0446157747 USC CARE MEDICAL GROUP INC CAHPS_GRP_5 CAHPS for MIPS SSM: Hea…       57
## 5 0446157747 USC CARE MEDICAL GROUP INC CAHPS_GRP_8 CAHPS for MIPS SSM: Cou…       85
## # ℹ 495 more rows

Đơn vị cốt lõi được nghiên cứu là tổ chức (), nhưng mỗi tổ chức lại trải rộng thành sáu hàng, với mỗi hàng tương ứng với một phép đo được thực hiện trong khảo sát tổ chức.

Ta có thể xem toàn bộ tập hợp giá trị của và bằng cách sử dụng hàm .

cms_patient_experience |> 
  distinct(measure_cd, measure_title)

## # A tibble: 6 × 2
##   measure_cd  measure_title                                                         
##   <chr>       <chr>                                                                 
## 1 CAHPS_GRP_1 CAHPS for MIPS SSM: Getting Timely Care, Appointments, and Information
## 2 CAHPS_GRP_2 CAHPS for MIPS SSM: How Well Providers Communicate                    
## 3 CAHPS_GRP_3 CAHPS for MIPS SSM: Patient's Rating of Provider                      
## 4 CAHPS_GRP_5 CAHPS for MIPS SSM: Health Promotion and Education                    
## 5 CAHPS_GRP_8 CAHPS for MIPS SSM: Courteous and Helpful Office Staff                
## # ℹ 1 more row

Cả hai cột này đều không phải là lựa chọn tốt để làm tên biến: thì không gợi ý rõ ý nghĩa của biến, còn lại là một câu dài có chứa khoảng trắng. Vì vậy, ta sẽ tạm dùng làm nguồn cho tên cột mới, nhưng trong một phân tích thực tế, bạn có thể muốn tự tạo ra những tên biến vừa ngắn gọn vừa có ý nghĩa hơn.

 có giao diện ngược lại với : thay vì chọn tên cột mới, ta cần chỉ định các cột hiện có để xác định giá trị () và tên cột ().

cms_patient_experience |> 
  pivot_wider(
    names_from = measure_cd,
    values_from = prf_rate
  )

## # A tibble: 500 × 9
##   org_pac_id org_nm     measure_title CAHPS_GRP_1 CAHPS_GRP_2 CAHPS_GRP_3 CAHPS_GRP_5
##   <chr>      <chr>      <chr>               <dbl>       <dbl>       <dbl>       <dbl>
## 1 0446157747 USC CARE … CAHPS for MI…          63          NA          NA          NA
## 2 0446157747 USC CARE … CAHPS for MI…          NA          87          NA          NA
## 3 0446157747 USC CARE … CAHPS for MI…          NA          NA          86          NA
## 4 0446157747 USC CARE … CAHPS for MI…          NA          NA          NA          57
## 5 0446157747 USC CARE … CAHPS for MI…          NA          NA          NA          NA
## # ℹ 495 more rows
## # ℹ 2 more variables: CAHPS_GRP_8 <dbl>, CAHPS_GRP_12 <dbl>

Kết quả đầu ra vẫn chưa đúng: có vẻ mỗi vẫn xuất hiện nhiều hàng. Lý do là ta còn phải cho biết cột (hoặc các cột) nào có giá trị nhận diện duy nhất từng hàng; trong trường hợp này chính là các biến bắt đầu bằng .

cms_patient_experience |> 
  pivot_wider(
    id_cols = starts_with("org"),
    names_from = measure_cd,
    values_from = prf_rate
  )

## # A tibble: 95 × 8
##   org_pac_id org_nm       CAHPS_GRP_1 CAHPS_GRP_2 CAHPS_GRP_3 CAHPS_GRP_5 CAHPS_GRP_8
##   <chr>      <chr>              <dbl>       <dbl>       <dbl>       <dbl>       <dbl>
## 1 0446157747 USC CARE ME…          63          87          86          57          85
## 2 0446162697 ASSOCIATION…          59          85          83          63          88
## 3 0547164295 BEAVER MEDI…          49          NA          75          44          73
## 4 0749333730 CAPE PHYSIC…          67          84          85          65          82
## 5 0840104360 ALLIANCE PH…          66          87          87          64          87
## # ℹ 90 more rows
## # ℹ 1 more variable: CAHPS_GRP_12 <dbl>
…
