Chapter 5 Tại sao phải chuẩn hóa dữ liệu? | A Minimal Bookdown Book
…
            A Minimal Bookdown Book

Chapter 5 Tại sao phải chuẩn hóa dữ liệu?

 và tất cả các gói khác trong được thiết kế để hoạt động với dữ liệu gọn gàng. Dưới đây là một vài ví dụ nhỏ cho thấy cách bạn có thể làm việc với 

# Compute rate per 10,000
table1 |>
  mutate(rate = cases / population * 10000)

## # A tibble: 6 × 5
##   country      year  cases population     rate
##   <chr>       <dbl>  <dbl>      <dbl>    <dbl>
## 1 Afghanistan  1999    745   19987071 0.372741
## 2 Afghanistan  2000   2666   20595360 1.29447 
## 3 Brazil       1999  37737  172006362 2.19393 
## 4 Brazil       2000  80488  174504898 4.61236 
## 5 China        1999 212258 1272915272 1.66750 
## # ℹ 1 more row
…
